{
  "count": 18,
  "next": "http://localhost:8080/api/v1/users?page=2",
  "previous": null,
  "results": [
    {
      "date_joined": "2021-12-14T18:04:57Z",
      "email": "admin1@cvat.org",
      "first_name": "Admin",
      "groups": [
        "admin"
      ],
      "id": 1,
      "is_active": true,
      "is_staff": true,
      "is_superuser": true,
      "last_login": "2021-12-15T09:12:28.004967Z",
      "last_name": "First",
      "url": "http://localhost:8080/api/v1/users/1",
      "username": "admin1"
    },
    {
      "date_joined": "2021-12-14T18:21:09Z",
      "email": "user1@cvat.org",
      "first_name": "User",
      "groups": [
        "user"
      ],
      "id": 2,
      "is_active": true,
      "is_staff": false,
      "is_superuser": false,
      "last_login": "2021-12-14T19:04:33.111650Z",
      "last_name": "First",
      "url": "http://localhost:8080/api/v1/users/2",
      "username": "user1"
    },
    {
      "date_joined": "2021-12-14T18:24:12Z",
      "email": "user2@cvat.org",
      "first_name": "User",
      "groups": [
        "user"
      ],
      "id": 3,
      "is_active": true,
      "is_staff": false,
      "is_superuser": false,
      "last_login": null,
      "last_name": "Second",
      "url": "http://localhost:8080/api/v1/users/3",
      "username": "user2"
    },
    {
      "date_joined": "2021-12-14T18:24:39Z",
      "email": "user3@cvat.org",
      "first_name": "User",
      "groups": [
        "user"
      ],
      "id": 4,
      "is_active": true,
      "is_staff": false,
      "is_superuser": false,
      "last_login": null,
      "last_name": "Third",
      "url": "http://localhost:8080/api/v1/users/4",
      "username": "user3"
    },
    {
      "date_joined": "2021-12-14T18:25:10Z",
      "email": "user4@cvat.org",
      "first_name": "User",
      "groups": [
        "user"
      ],
      "id": 5,
      "is_active": true,
      "is_staff": false,
      "is_superuser": false,
      "last_login": null,
      "last_name": "Fourth",
      "url": "http://localhost:8080/api/v1/users/5",
      "username": "user4"
    },
    {
      "date_joined": "2021-12-14T18:30:00Z",
      "email": "worker1@cvat.org",
      "first_name": "Worker",
      "groups": [
        "worker"
      ],
      "id": 6,
      "is_active": true,
      "is_staff": false,
      "is_superuser": false,
      "last_login": "2021-12-14T19:11:21.048740Z",
      "last_name": "First",
      "url": "http://localhost:8080/api/v1/users/6",
      "username": "worker1"
    },
    {
      "date_joined": "2021-12-14T18:30:43Z",
      "email": "worker2@cvat.org",
      "first_name": "Worker",
      "groups": [
        "worker"
      ],
      "id": 7,
      "is_active": true,
      "is_staff": false,
      "is_superuser": false,
      "last_login": null,
      "last_name": "Second",
      "url": "http://localhost:8080/api/v1/users/7",
      "username": "worker2"
    },
    {
      "date_joined": "2021-12-14T18:31:25Z",
      "email": "worker3@cvat.org",
      "first_name": "Worker",
      "groups": [
        "worker"
      ],
      "id": 8,
      "is_active": true,
      "is_staff": false,
      "is_superuser": false,
      "last_login": null,
      "last_name": "Third",
      "url": "http://localhost:8080/api/v1/users/8",
      "username": "worker3"
    },
    {
      "date_joined": "2021-12-14T18:32:01Z",
      "email": "worker4@cvat.org",
      "first_name": "Worker",
      "groups": [
        "worker"
      ],
      "id": 9,
      "is_active": true,
      "is_staff": false,
      "is_superuser": false,
      "last_login": null,
      "last_name": "Fourth",
      "url": "http://localhost:8080/api/v1/users/9",
      "username": "worker4"
    },
    {
      "date_joined": "2021-12-14T18:33:06Z",
      "email": "business1@cvat.org",
      "first_name": "Business",
      "groups": [
        "business"
      ],
      "id": 10,
      "is_active": true,
      "is_staff": false,
      "is_superuser": false,
      "last_login": "2021-12-14T19:44:48.526708Z",
      "last_name": "First",
      "url": "http://localhost:8080/api/v1/users/10",
      "username": "business1"
    }
  ]
}
